QTM 150 Final Project Group 1C
…
REGION.BORO <- DOHM1 %>%
  select(region, BORO, SCORE1) %>%
  group_by(region, BORO) %>%
  summarise(avg_score=mean(SCORE1, na.rm=T)) %>%
  arrange(BORO) %>%
  filter(is.na(region)==F)

## `summarise()` regrouping output by 'region' (override with `.groups` argument)

# Print the summary table 

REGION.BORO

## # A tibble: 50 x 3
## # Groups:   region [10]
##    region          BORO  avg_score
##    <fct>           <chr>     <dbl>
##  1 AMERICAN        0          22.1
##  2 EUROPEAN        0          13.1
##  3 AFRICAN         Bronx      27.8
##  4 AMERICAN        Bronx      18.3
##  5 CENTRAL AMERICA Bronx      22.4
##  6 EAST ASIAN      Bronx      18.1
##  7 EUROPEAN        Bronx      23.0
##  8 MIDDLE EAST     Bronx      19.9
##  9 SOUTH AMERICAN  Bronx      22.5
## 10 SOUTH ASIAN     Bronx      27.7
## # ... with 40 more rows
…
